{"data": [{"id": 26, "competition_id": 3, "date": "1899-11-30", "time": "00:00:00", "datetimeutc": "1899-11-30 00:00:00", "clock_started": "0", "clock_elapsed": "0", "period": null, "status": "Official", "status2": "Official", "number": "12", "venue": null, "latitude": "", "longitude": "", "location": "Amsterdam, Netherlands", "ticket_link": "", "timezone": null, "currentTeamScore": 1, "verseTeamScore": 0, "homeps": 0, "awayps": 0, "title": null, "hometitle": null, "awaytitle": null, "slug": "", "live_link": "", "matchDescription": "", "currentTeam": {"id": 12, "name": "Belgium", "code": "BEL", "standing": 4, "ranking": null, "fih_team_id": 9, "coverPic": "https://s3-us-west-1.amazonaws.com/fih-staging/Countries/cp_countries_15426485352525.jpg", "flagPic": "https://s3-us-west-1.amazonaws.com/fih-production/Countries/BEL.png", "hex_code": "#ed2939", "second_hex": "", "twitter_id": "BELRedLions", "slug": "belgium"}, "verseTeam": {"id": 13, "name": "Denmark", "code": "DEN", "standing": 5, "ranking": null, "fih_team_id": 18, "coverPic": "https://www.worldcup2018.hockey/admin/images/default_image.png", "flagPic": "https://s3-us-west-1.amazonaws.com/fih-production/Countries/DEN.png", "hex_code": null, "second_hex": "", "twitter_id": null, "slug": "denmark"}, "pool": "Pool A", "currentTeamPlayer": {}, "verseTeamPlayer": {}}, {"id": 23, "competition_id": 3, "date": "1899-11-30", "time": "00:00:00", "datetimeutc": "1899-11-30 00:00:00", "clock_started": "0", "clock_elapsed": "0", "period": null, "status": "Official", "status2": "Official", "number": "10", "venue": null, "latitude": "", "longitude": "", "location": "Amsterdam, Netherlands", "ticket_link": "", "timezone": null, "currentTeamScore": 6, "verseTeamScore": 0, "homeps": 0, "awayps": 0, "title": null, "hometitle": null, "awaytitle": null, "slug": "", "live_link": "", "matchDescription": "", "currentTeam": {"id": 17, "name": "India", "code": "IND", "standing": 1, "ranking": null, "fih_team_id": 35, "coverPic": "https://s3-us-west-1.amazonaws.com/fih-staging/Countries/cp_countries_15426490452889.jpg", "flagPic": "https://s3-us-west-1.amazonaws.com/fih-production/Countries/IND.png", "hex_code": "#57b1e3", "second_hex": "", "twitter_id": "TheHockeyIndia", "slug": "india"}, "verseTeam": {"id": 11, "name": "Austria", "code": "AUT", "standing": 9, "ranking": null, "fih_team_id": 5, "coverPic": "https://www.worldcup2018.hockey/admin/images/default_image.png", "flagPic": "https://s3-us-west-1.amazonaws.com/fih-production/Countries/AUT.png", "hex_code": null, "second_hex": "", "twitter_id": null, "slug": "austria"}, "pool": "Pool A", "currentTeamPlayer": {}, "verseTeamPlayer": {}}, {"id": 24, "competition_id": 3, "date": "1899-11-30", "time": "00:00:00", "datetimeutc": "1899-11-30 00:00:00", "clock_started": "0", "clock_elapsed": "0", "period": null, "status": "Official", "status2": "Official", "number": "11", "venue": null, "latitude": "", "longitude": "", "location": "Amsterdam, Netherlands", "ticket_link": "", "timezone": null, "currentTeamScore": 3, "verseTeamScore": 1, "homeps": 0, "awayps": 0, "title": null, "hometitle": null, "awaytitle": null, "slug": "", "live_link": "", "matchDescription": "", "currentTeam": {"id": 13, "name": "Denmark", "code": "DEN", "standing": 5, "ranking": null, "fih_team_id": 18, "coverPic": "https://www.worldcup2018.hockey/admin/images/default_image.png", "flagPic": "https://s3-us-west-1.amazonaws.com/fih-production/Countries/DEN.png", "hex_code": null, "second_hex": "", "twitter_id": null, "slug": "denmark"}, "verseTeam": {"id": 11, "name": "Austria", "code": "AUT", "standing": 9, "ranking": null, "fih_team_id": 5, "coverPic": "https://www.worldcup2018.hockey/admin/images/default_image.png", "flagPic": "https://s3-us-west-1.amazonaws.com/fih-production/Countries/AUT.png", "hex_code": null, "second_hex": "", "twitter_id": null, "slug": "austria"}, "pool": "Pool A", "currentTeamPlayer": {}, "verseTeamPlayer": {}}, {"id": 13, "competition_id": 3, "date": "1899-11-30", "time": "00:00:00", "datetimeutc": "1899-11-30 00:00:00", "clock_started": "0", "clock_elapsed": "0", "period": null, "status": "Official", "status2": "Official", "number": "1", "venue": null, "latitude": "", "longitude": "", "location": "Amsterdam, Netherlands", "ticket_link": "", "timezone": null, "currentTeamScore": 4, "verseTeamScore": 0, "homeps": 0, "awayps": 0, "title": null, "hometitle": null, "awaytitle": null, "slug": "", "live_link": "", "matchDescription": "", "currentTeam": {"id": 12, "name": "Belgium", "code": "BEL", "standing": 4, "ranking": null, "fih_team_id": 9, "coverPic": "https://s3-us-west-1.amazonaws.com/fih-staging/Countries/cp_countries_15426485352525.jpg", "flagPic": "https://s3-us-west-1.amazonaws.com/fih-production/Countries/BEL.png", "hex_code": "#ed2939", "second_hex": "", "twitter_id": "BELRedLions", "slug": "belgium"}, "verseTeam": {"id": 11, "name": "Austria", "code": "AUT", "standing": 9, "ranking": null, "fih_team_id": 5, "coverPic": "https://www.worldcup2018.hockey/admin/images/default_image.png", "flagPic": "https://s3-us-west-1.amazonaws.com/fih-production/Countries/AUT.png", "hex_code": null, "second_hex": "", "twitter_id": null, "slug": "austria"}, "pool": "Pool A", "currentTeamPlayer": {}, "verseTeamPlayer": {}}, {"id": 14, "competition_id": 3, "date": "1899-11-30", "time": "00:00:00", "datetimeutc": "1899-11-30 00:00:00", "clock_started": "0", "clock_elapsed": "0", "period": null, "status": "Official", "status2": "Official", "number": "2", "venue": null, "latitude": "", "longitude": "", "location": "Amsterdam, Netherlands", "ticket_link": "", "timezone": null, "currentTeamScore": 1, "verseTeamScore": 0, "homeps": 0, "awayps": 0, "title": null, "hometitle": null, "awaytitle": null, "slug": "", "live_link": "", "matchDescription": "", "currentTeam": {"id": 19, "name": "Switzerland", "code": "SUI", "standing": 7, "ranking": null, "fih_team_id": 63, "coverPic": "https://www.worldcup2018.hockey/admin/images/default_image.png", "flagPic": "https://s3-us-west-1.amazonaws.com/fih-production/Countries/SUI.png", "hex_code": null, "second_hex": "", "twitter_id": null, "slug": "switzerland"}, "verseTeam": {"id": 11, "name": "Austria", "code": "AUT", "standing": 9, "ranking": null, "fih_team_id": 5, "coverPic": "https://www.worldcup2018.hockey/admin/images/default_image.png", "flagPic": "https://s3-us-west-1.amazonaws.com/fih-production/Countries/AUT.png", "hex_code": null, "second_hex": "", "twitter_id": null, "slug": "austria"}, "pool": "Pool A", "currentTeamPlayer": {}, "verseTeamPlayer": {}}, {"id": 16, "competition_id": 3, "date": "1899-11-30", "time": "00:00:00", "datetimeutc": "1899-11-30 00:00:00", "clock_started": "0", "clock_elapsed": "0", "period": null, "status": "Official", "status2": "Official", "number": "3", "venue": null, "latitude": "", "longitude": "", "location": "Amsterdam, Netherlands", "ticket_link": "", "timezone": null, "currentTeamScore": 6, "verseTeamScore": 0, "homeps": 0, "awayps": 0, "title": null, "hometitle": null, "awaytitle": null, "slug": "", "live_link": "", "matchDescription": "", "currentTeam": {"id": 17, "name": "India", "code": "IND", "standing": 1, "ranking": null, "fih_team_id": 35, "coverPic": "https://s3-us-west-1.amazonaws.com/fih-staging/Countries/cp_countries_15426490452889.jpg", "flagPic": "https://s3-us-west-1.amazonaws.com/fih-production/Countries/IND.png", "hex_code": "#57b1e3", "second_hex": "", "twitter_id": "TheHockeyIndia", "slug": "india"}, "verseTeam": {"id": 19, "name": "Switzerland", "code": "SUI", "standing": 7, "ranking": null, "fih_team_id": 63, "coverPic": "https://www.worldcup2018.hockey/admin/images/default_image.png", "flagPic": "https://s3-us-west-1.amazonaws.com/fih-production/Countries/SUI.png", "hex_code": null, "second_hex": "", "twitter_id": null, "slug": "switzerland"}, "pool": "Pool A", "currentTeamPlayer": {}, "verseTeamPlayer": {}}, {"id": 17, "competition_id": 3, "date": "1899-11-30", "time": "00:00:00", "datetimeutc": "1899-11-30 00:00:00", "clock_started": "0", "clock_elapsed": "0", "period": null, "status": "Official", "status2": "Official", "number": "4", "venue": null, "latitude": "", "longitude": "", "location": "Amsterdam, Netherlands", "ticket_link": "", "timezone": null, "currentTeamScore": 2, "verseTeamScore": 1, "homeps": 0, "awayps": 0, "title": null, "hometitle": null, "awaytitle": null, "slug": "", "live_link": "", "matchDescription": "", "currentTeam": {"id": 15, "name": "France", "code": "FRA", "standing": 5, "ranking": null, "fih_team_id": 24, "coverPic": "https://s3-us-west-1.amazonaws.com/fih-staging/Countries/cp_countries_15426488847725.jpg", "flagPic": "https://s3-us-west-1.amazonaws.com/fih-production/Countries/FRA.png", "hex_code": "#0055a4", "second_hex": "", "twitter_id": "FF_Hockey", "slug": "france"}, "verseTeam": {"id": 14, "name": "Spain", "code": "ESP", "standing": 7, "ranking": null, "fih_team_id": 21, "coverPic": "https://s3-us-west-1.amazonaws.com/fih-staging/Countries/cp_countries_15426488137851.jpg", "flagPic": "https://s3-us-west-1.amazonaws.com/fih-production/Countries/ESP.png", "hex_code": "#c60b1e", "second_hex": "", "twitter_id": "absolutamasc", "slug": "spain"}, "pool": "Pool B", "currentTeamPlayer": {}, "verseTeamPlayer": {}}, {"id": 18, "competition_id": 3, "date": "1899-11-30", "time": "00:00:00", "datetimeutc": "1899-11-30 00:00:00", "clock_started": "0", "clock_elapsed": "0", "period": null, "status": "Official", "status2": "Official", "number": "5", "venue": null, "latitude": "", "longitude": "", "location": "Amsterdam, Netherlands", "ticket_link": "", "timezone": null, "currentTeamScore": 3, "verseTeamScore": 0, "homeps": 0, "awayps": 0, "title": null, "hometitle": null, "awaytitle": null, "slug": "", "live_link": "", "matchDescription": "", "currentTeam": {"id": 12, "name": "Belgium", "code": "BEL", "standing": 4, "ranking": null, "fih_team_id": 9, "coverPic": "https://s3-us-west-1.amazonaws.com/fih-staging/Countries/cp_countries_15426485352525.jpg", "flagPic": "https://s3-us-west-1.amazonaws.com/fih-production/Countries/BEL.png", "hex_code": "#ed2939", "second_hex": "", "twitter_id": "BELRedLions", "slug": "belgium"}, "verseTeam": {"id": 19, "name": "Switzerland", "code": "SUI", "standing": 7, "ranking": null, "fih_team_id": 63, "coverPic": "https://www.worldcup2018.hockey/admin/images/default_image.png", "flagPic": "https://s3-us-west-1.amazonaws.com/fih-production/Countries/SUI.png", "hex_code": null, "second_hex": "", "twitter_id": null, "slug": "switzerland"}, "pool": "Pool A", "currentTeamPlayer": {}, "verseTeamPlayer": {}}, {"id": 19, "competition_id": 3, "date": "1899-11-30", "time": "00:00:00", "datetimeutc": "1899-11-30 00:00:00", "clock_started": "0", "clock_elapsed": "0", "period": null, "status": "Official", "status2": "Official", "number": "6", "venue": null, "latitude": "", "longitude": "", "location": "Amsterdam, Netherlands", "ticket_link": "", "timezone": null, "currentTeamScore": 9, "verseTeamScore": 0, "homeps": 0, "awayps": 0, "title": null, "hometitle": null, "awaytitle": null, "slug": "", "live_link": "", "matchDescription": "", "currentTeam": {"id": 17, "name": "India", "code": "IND", "standing": 1, "ranking": null, "fih_team_id": 35, "coverPic": "https://s3-us-west-1.amazonaws.com/fih-staging/Countries/cp_countries_15426490452889.jpg", "flagPic": "https://s3-us-west-1.amazonaws.com/fih-production/Countries/IND.png", "hex_code": "#57b1e3", "second_hex": "", "twitter_id": "TheHockeyIndia", "slug": "india"}, "verseTeam": {"id": 12, "name": "Belgium", "code": "BEL", "standing": 4, "ranking": null, "fih_team_id": 9, "coverPic": "https://s3-us-west-1.amazonaws.com/fih-staging/Countries/cp_countries_15426485352525.jpg", "flagPic": "https://s3-us-west-1.amazonaws.com/fih-production/Countries/BEL.png", "hex_code": "#ed2939", "second_hex": "", "twitter_id": "BELRedLions", "slug": "belgium"}, "pool": "Pool A", "currentTeamPlayer": {}, "verseTeamPlayer": {}}, {"id": 20, "competition_id": 3, "date": "1899-11-30", "time": "00:00:00", "datetimeutc": "1899-11-30 00:00:00", "clock_started": "0", "clock_elapsed": "0", "period": null, "status": "Official", "status2": "Official", "number": "7", "venue": null, "latitude": "", "longitude": "", "location": "Amsterdam, Netherlands", "ticket_link": "", "timezone": null, "currentTeamScore": 5, "verseTeamScore": 0, "homeps": 0, "awayps": 0, "title": null, "hometitle": null, "awaytitle": null, "slug": "", "live_link": "", "matchDescription": "", "currentTeam": {"id": 17, "name": "India", "code": "IND", "standing": 1, "ranking": null, "fih_team_id": 35, "coverPic": "https://s3-us-west-1.amazonaws.com/fih-staging/Countries/cp_countries_15426490452889.jpg", "flagPic": "https://s3-us-west-1.amazonaws.com/fih-production/Countries/IND.png", "hex_code": "#57b1e3", "second_hex": "", "twitter_id": "TheHockeyIndia", "slug": "india"}, "verseTeam": {"id": 13, "name": "Denmark", "code": "DEN", "standing": 5, "ranking": null, "fih_team_id": 18, "coverPic": "https://www.worldcup2018.hockey/admin/images/default_image.png", "flagPic": "https://s3-us-west-1.amazonaws.com/fih-production/Countries/DEN.png", "hex_code": null, "second_hex": "", "twitter_id": null, "slug": "denmark"}, "pool": "Pool A", "currentTeamPlayer": {}, "verseTeamPlayer": {}}], "meta": {"pagination": {"total": 13192, "count": 10, "per_page": 10, "current_page": 1, "total_pages": 1320, "links": {"next": "http://www.worldcup2018.hockey/admin/api/v1/matches/get-match-statics-list?page=2"}}}}